{
    "/api":{
        "target": "http://customer.localhost:5800"
    },
    "/info":{
        "target": "http://customer.localhost:5800"
    },
    "/setup":{
        "target": "http://customer.localhost:5800"
    }
}